<?xml version="1.0" encoding="utf-8"?>
<!-- Generator: Adobe Illustrator 20.1.0, SVG Export Plug-In . SVG Version: 6.00 Build 0)  -->
<svg version="1.1" id="Layer_1" xmlns="http://www.w3.org/2000/svg" xmlns:xlink="http://www.w3.org/1999/xlink" x="0px" y="0px"
	 viewBox="0 0 500 500" style="enable-background:new 0 0 500 500;" xml:space="preserve">
<style type="text/css">
	.st0{fill:#666666;}
	.st1{fill:#7F8080;}
	.st2{fill:#FFFFFF;}
	.st3{fill:none;stroke:#7F8080;stroke-width:30;stroke-miterlimit:10;}
	.st4{clip-path:url(#SVGID_2_);}
	.st5{fill:none;stroke:#7F8080;stroke-width:50;stroke-miterlimit:10;}
	.st6{fill:none;stroke:#7F8080;stroke-width:20;stroke-miterlimit:10;}
	.st7{fill:#676766;}
</style>
<path class="st0" d="M500,8.4H0v388.7h71.6l137.2,94.5l-21.3-94.5H500V8.4z M422.4,215.7c0,27.9-3.4,55.8-3.4,55.8
	s-3.4,23.8-13.7,34.2c-13.1,13.7-27.8,13.8-34.5,14.6c-48.2,3.5-120.7,3.6-120.7,3.6s-89.6-0.8-117.2-3.5c-7.7-1.4-24.9-1-38-14.7
	c-10.3-10.5-13.7-34.2-13.7-34.2s-3.4-27.9-3.4-55.8v-26.1c0-27.9,3.4-55.8,3.4-55.8s3.4-23.8,13.7-34.2
	c13.1-13.7,27.8-13.8,34.5-14.6c48.2-3.5,120.6-3.5,120.6-3.5h0.2c0,0,72.4,0,120.6,3.5c6.7,0.8,21.4,0.9,34.5,14.6
	c10.3,10.5,13.7,34.2,13.7,34.2s3.4,27.9,3.4,55.8V215.7z"/>
</svg>
