<?xml version="1.0" encoding="utf-8"?>
<!-- Generator: Adobe Illustrator 20.1.0, SVG Export Plug-In . SVG Version: 6.00 Build 0)  -->
<svg version="1.1" id="Layer_1" xmlns="http://www.w3.org/2000/svg" xmlns:xlink="http://www.w3.org/1999/xlink" x="0px" y="0px"
	 viewBox="0 0 500 500" style="enable-background:new 0 0 500 500;" xml:space="preserve">
<style type="text/css">
	.st0{fill:#666666;}
	.st1{fill:#7F8080;}
	.st2{fill:#FFFFFF;}
	.st3{fill:none;stroke:#7F8080;stroke-width:30;stroke-miterlimit:10;}
	.st4{clip-path:url(#SVGID_2_);}
	.st5{fill:none;stroke:#7F8080;stroke-width:50;stroke-miterlimit:10;}
	.st6{fill:none;stroke:#7F8080;stroke-width:20;stroke-miterlimit:10;}
	.st7{fill:#676766;}
</style>
<polygon class="st0" points="375,250 125,394.3 125,105.7 "/>
</svg>
