<?xml version="1.0" encoding="utf-8"?>
<!-- Generator: Adobe Illustrator 20.1.0, SVG Export Plug-In . SVG Version: 6.00 Build 0)  -->
<svg version="1.1" id="Layer_1" xmlns="http://www.w3.org/2000/svg" xmlns:xlink="http://www.w3.org/1999/xlink" x="0px" y="0px"
	 viewBox="0 0 500 500" style="enable-background:new 0 0 500 500;" xml:space="preserve">
<style type="text/css">
	.st0{fill:#666666;}
	.st1{fill:#7F8080;}
	.st2{fill:#FFFFFF;}
	.st3{fill:none;stroke:#7F8080;stroke-width:30;stroke-miterlimit:10;}
	.st4{clip-path:url(#SVGID_2_);}
	.st5{fill:none;stroke:#7F8080;stroke-width:50;stroke-miterlimit:10;}
	.st6{fill:none;stroke:#7F8080;stroke-width:20;stroke-miterlimit:10;}
	.st7{fill:#676766;}
</style>
<path class="st0" d="M250,0C111.9,0,0,111.9,0,250c0,138.1,111.9,250,250,250c138.1,0,250-111.9,250-250C500,111.9,388.1,0,250,0z
	 M163.4,337.5v-175L315,250L163.4,337.5z M335.1,337.5h-20v-175h20V337.5z"/>
</svg>
