<?xml version="1.0" encoding="utf-8"?>
<!-- Generator: Adobe Illustrator 20.1.0, SVG Export Plug-In . SVG Version: 6.00 Build 0)  -->
<svg version="1.1" id="Layer_1" xmlns="http://www.w3.org/2000/svg" xmlns:xlink="http://www.w3.org/1999/xlink" x="0px" y="0px"
	 viewBox="0 0 500 500" style="enable-background:new 0 0 500 500;" xml:space="preserve">
<style type="text/css">
	.st0{fill:#666666;}
	.st1{fill:#7F8080;}
	.st2{fill:#FFFFFF;}
	.st3{fill:none;stroke:#7F8080;stroke-width:30;stroke-miterlimit:10;}
	.st4{clip-path:url(#SVGID_2_);}
	.st5{fill:none;stroke:#7F8080;stroke-width:50;stroke-miterlimit:10;}
	.st6{fill:none;stroke:#7F8080;stroke-width:20;stroke-miterlimit:10;}
	.st7{fill:#676766;}
</style>
<g>
	<path class="st0" d="M250,0C111.9,0,0,111.9,0,250c0,138.1,111.9,250,250,250s250-111.9,250-250C500,111.9,388.1,0,250,0z
		 M412.6,412.6c-21.1,21.1-45.7,37.7-73.1,49.3c-28.3,12-58.5,18.1-89.5,18.1s-61.2-6.1-89.5-18.1c-27.4-11.6-52-28.2-73.1-49.3
		c-21.1-21.1-37.7-45.7-49.3-73.1C26.1,311.2,20,281.1,20,250s6.1-61.2,18.1-89.5c11.6-27.4,28.2-52,49.3-73.1
		c21.1-21.1,45.7-37.7,73.1-49.3C188.8,26.1,218.9,20,250,20s61.2,6.1,89.5,18.1c27.4,11.6,52,28.2,73.1,49.3
		c21.1,21.1,37.7,45.7,49.3,73.1c12,28.3,18.1,58.5,18.1,89.5s-6.1,61.2-18.1,89.5C450.4,366.9,433.8,391.5,412.6,412.6z"/>
	<rect x="162.5" y="162.5" class="st0" width="175" height="175"/>
</g>
</svg>
