<?xml version="1.0" encoding="utf-8"?>
<!-- Generator: Adobe Illustrator 20.1.0, SVG Export Plug-In . SVG Version: 6.00 Build 0)  -->
<svg version="1.1" id="Layer_1" xmlns="http://www.w3.org/2000/svg" xmlns:xlink="http://www.w3.org/1999/xlink" x="0px" y="0px"
	 viewBox="0 0 500 500" style="enable-background:new 0 0 500 500;" xml:space="preserve">
<style type="text/css">
	.st0{fill:#666666;}
	.st1{fill:#7F8080;}
	.st2{fill:#FFFFFF;}
	.st3{fill:none;stroke:#7F8080;stroke-width:30;stroke-miterlimit:10;}
	.st4{clip-path:url(#SVGID_2_);}
	.st5{fill:none;stroke:#7F8080;stroke-width:50;stroke-miterlimit:10;}
	.st6{fill:none;stroke:#7F8080;stroke-width:20;stroke-miterlimit:10;}
	.st7{fill:#676766;}
</style>
<g>
	<path class="st0" d="M270.7,53.4l-108.5,116H67.5v161.1h94.7l108.5,116c10.4,11.2,29.2,3.8,29.2-11.5V64.9
		C299.9,49.6,281.1,42.3,270.7,53.4z"/>
	<path class="st0" d="M383.3,139.5l-23.8,24c24.1,21.1,39.3,52.1,39.3,86.6c0,34.5-15.2,65.5-39.3,86.6l23.8,24
		c30.2-27.3,49.2-66.7,49.2-110.5C432.5,206.2,413.5,166.7,383.3,139.5z"/>
</g>
</svg>
