<?xml version="1.0" encoding="utf-8"?>
<!-- Generator: Adobe Illustrator 20.1.0, SVG Export Plug-In . SVG Version: 6.00 Build 0)  -->
<svg version="1.1" id="Layer_1" xmlns="http://www.w3.org/2000/svg" xmlns:xlink="http://www.w3.org/1999/xlink" x="0px" y="0px"
	 viewBox="0 0 500 500" style="enable-background:new 0 0 500 500;" xml:space="preserve">
<style type="text/css">
	.st0{fill:#666766;}
	.st1{fill:#FFFFFF;}
	.st2{fill:#7F8080;}
	.st3{fill:none;stroke:#7F8080;stroke-width:20;stroke-miterlimit:10;}
	.st4{fill-rule:evenodd;clip-rule:evenodd;fill:#FFFFFF;}
	.st5{fill:none;stroke:#7F8080;stroke-width:30;stroke-miterlimit:10;}
	.st6{fill:none;stroke:#7F8080;stroke-width:50;stroke-miterlimit:10;}
	.st7{fill:none;stroke:#000000;stroke-width:50;stroke-miterlimit:10;}
	.st8{fill:none;stroke:#FFFFFF;stroke-width:30;stroke-miterlimit:10;}
	.st9{fill:none;stroke:#FFFFFF;stroke-width:50;stroke-miterlimit:10;}
	.st10{fill-rule:evenodd;clip-rule:evenodd;fill:#666766;}
	.st11{fill:none;stroke:#7F8080;stroke-width:30;stroke-linecap:round;stroke-miterlimit:10;}
</style>
<g>
	<path class="st0" d="M50,250c0-41.4,33.6-75,75-75h100v-50H125C56,125,0,181,0,250v0c0,69,56,125,125,125h100v-50H125
		C83.6,325,50,291.4,50,250z"/>
	<path class="st0" d="M375,125H275v50h100c41.4,0,75,33.6,75,75c0,41.4-33.6,75-75,75H275v50h100c69,0,125-56,125-125v0
		C500,181,444,125,375,125z"/>
	<polygon class="st0" points="355.2,275 355.2,225 275,225 225,225 144.8,225 144.8,275 225,275 275,275 	"/>
</g>
</svg>
