<?xml version="1.0" encoding="utf-8"?>
<!-- Generator: Adobe Illustrator 20.1.0, SVG Export Plug-In . SVG Version: 6.00 Build 0)  -->
<svg version="1.1" id="Layer_1" xmlns="http://www.w3.org/2000/svg" xmlns:xlink="http://www.w3.org/1999/xlink" x="0px" y="0px"
	 viewBox="0 0 500 500" style="enable-background:new 0 0 500 500;" xml:space="preserve">
<style type="text/css">
	.st0{fill:#666766;}
	.st1{fill:#FFFFFF;}
	.st2{fill:#7F8080;}
	.st3{fill:none;stroke:#7F8080;stroke-width:20;stroke-miterlimit:10;}
	.st4{fill-rule:evenodd;clip-rule:evenodd;fill:#FFFFFF;}
	.st5{fill:none;stroke:#7F8080;stroke-width:30;stroke-miterlimit:10;}
	.st6{fill:none;stroke:#7F8080;stroke-width:50;stroke-miterlimit:10;}
	.st7{fill:none;stroke:#000000;stroke-width:50;stroke-miterlimit:10;}
	.st8{fill:none;stroke:#FFFFFF;stroke-width:30;stroke-miterlimit:10;}
	.st9{fill:none;stroke:#FFFFFF;stroke-width:50;stroke-miterlimit:10;}
	.st10{fill-rule:evenodd;clip-rule:evenodd;fill:#666766;}
	.st11{fill:none;stroke:#7F8080;stroke-width:30;stroke-linecap:round;stroke-miterlimit:10;}
</style>
<rect x="100" y="500" class="st1" width="300" height="0"/>
<g>
	<path class="st0" d="M450,141.1H50c-27.6,0-50,22.4-50,50v200h100V500h300V391.1h100v-200C500,163.5,477.6,141.1,450,141.1z
		 M370,470H130v-78.9v-13.6v-15.3V248.8h240v113.4v15.3v13.6V470z M439.5,221.8c-13.8,0-25-11.2-25-25s11.2-25,25-25s25,11.2,25,25
		S453.3,221.8,439.5,221.8z"/>
	<rect x="100" y="0" class="st0" width="300" height="120"/>
	<rect x="165.3" y="412.7" class="st0" width="169.5" height="20"/>
	<rect x="165.3" y="349.9" class="st0" width="169.5" height="20"/>
	<rect x="165.3" y="287.1" class="st0" width="169.5" height="20"/>
</g>
</svg>
