<?xml version="1.0" encoding="utf-8"?>
<!-- Generator: Adobe Illustrator 20.1.0, SVG Export Plug-In . SVG Version: 6.00 Build 0)  -->
<svg version="1.1" id="Layer_1" xmlns="http://www.w3.org/2000/svg" xmlns:xlink="http://www.w3.org/1999/xlink" x="0px" y="0px"
	 viewBox="0 0 500 500" style="enable-background:new 0 0 500 500;" xml:space="preserve">
<style type="text/css">
	.st0{fill:#666766;}
	.st1{fill:#FFFFFF;}
	.st2{fill:#7F8080;}
	.st3{fill:none;stroke:#7F8080;stroke-width:20;stroke-miterlimit:10;}
	.st4{fill-rule:evenodd;clip-rule:evenodd;fill:#FFFFFF;}
	.st5{fill:none;stroke:#7F8080;stroke-width:30;stroke-miterlimit:10;}
	.st6{fill:none;stroke:#7F8080;stroke-width:50;stroke-miterlimit:10;}
	.st7{fill:none;stroke:#000000;stroke-width:50;stroke-miterlimit:10;}
	.st8{fill:none;stroke:#FFFFFF;stroke-width:30;stroke-miterlimit:10;}
	.st9{fill:none;stroke:#FFFFFF;stroke-width:50;stroke-miterlimit:10;}
	.st10{fill-rule:evenodd;clip-rule:evenodd;fill:#666766;}
	.st11{fill:none;stroke:#7F8080;stroke-width:30;stroke-linecap:round;stroke-miterlimit:10;}
</style>
<g>
	<path class="st0" d="M190,0C85.1,0,0,85.1,0,190s85.1,190,190,190s190-85.1,190-190S294.9,0,190,0z M289,289
		c-26.4,26.4-61.6,41-99,41s-72.6-14.6-99-41c-26.4-26.4-41-61.6-41-99s14.6-72.6,41-99c26.4-26.4,61.6-41,99-41s72.6,14.6,99,41
		c26.4,26.4,41,61.6,41,99S315.4,262.6,289,289z"/>
	<polygon class="st0" points="362.5,327.2 324.9,324.9 327.2,362.5 464.6,500 500,464.6 	"/>
</g>
</svg>
