<?xml version="1.0" encoding="utf-8"?>
<!-- Generator: Adobe Illustrator 20.1.0, SVG Export Plug-In . SVG Version: 6.00 Build 0)  -->
<svg version="1.1" id="Layer_1" xmlns="http://www.w3.org/2000/svg" xmlns:xlink="http://www.w3.org/1999/xlink" x="0px" y="0px"
	 viewBox="0 0 500 500" style="enable-background:new 0 0 500 500;" xml:space="preserve">
<style type="text/css">
	.st0{fill:#666766;}
	.st1{fill:#FFFFFF;}
	.st2{fill:#7F8080;}
	.st3{fill:none;stroke:#7F8080;stroke-width:20;stroke-miterlimit:10;}
	.st4{fill-rule:evenodd;clip-rule:evenodd;fill:#FFFFFF;}
	.st5{fill:none;stroke:#7F8080;stroke-width:30;stroke-miterlimit:10;}
	.st6{fill:none;stroke:#7F8080;stroke-width:50;stroke-miterlimit:10;}
	.st7{fill:none;stroke:#000000;stroke-width:50;stroke-miterlimit:10;}
	.st8{fill:none;stroke:#FFFFFF;stroke-width:30;stroke-miterlimit:10;}
	.st9{fill:none;stroke:#FFFFFF;stroke-width:50;stroke-miterlimit:10;}
	.st10{fill-rule:evenodd;clip-rule:evenodd;fill:#666766;}
	.st11{fill:none;stroke:#7F8080;stroke-width:30;stroke-linecap:round;stroke-miterlimit:10;}
</style>
<path class="st0" d="M495.3,218.8c-1.6-2.7-3.2-5.4-4.9-8c-0.8-1.3-1.7-2.6-2.6-3.9c-15.6-23.5-34.5-44.6-56.2-62.5
	c-4.8-4-9.8-7.8-14.8-11.5c-3.8-2.7-7.7-5.4-11.6-8c-2.6-1.7-5.3-3.4-8-5c-4-2.4-8.1-4.8-12.3-7C344.8,91.2,298.8,79,250,79
	s-94.8,12.3-135,33.9c-4.2,2.2-8.2,4.6-12.3,7c-2.7,1.6-5.3,3.3-8,5c-3.9,2.6-7.8,5.2-11.6,8c-5.1,3.7-10,7.5-14.8,11.5
	c-21.7,17.9-40.6,39-56.2,62.5c-0.9,1.3-1.7,2.6-2.6,3.9c-1.7,2.6-3.3,5.3-4.9,8c-1.6,2.7-3.2,5.4-4.7,8.2c1.5,2.8,3.1,5.5,4.7,8.2
	c1.6,2.7,3.2,5.4,4.9,8c0.8,1.3,1.7,2.6,2.6,3.9c15.6,23.5,34.5,44.6,56.2,62.5c4.8,4,9.8,7.8,14.8,11.5c3.8,2.7,7.7,5.4,11.6,8
	c6.6,4.3,13.3,8.3,20.2,12c40.2,21.6,86.1,33.9,135,33.9c36.7,0,71.9-7,104.1-19.6l65.7,65.7V318.9c4-3,8-6.1,11.8-9.3
	c21.7-17.9,40.6-39,56.2-62.5c0.9-1.3,1.7-2.6,2.6-3.9c1.7-2.6,3.3-5.3,4.9-8c1.6-2.7,3.2-5.4,4.7-8.2
	C498.5,224.2,496.9,221.5,495.3,218.8z M204.7,142c16.5,0,29.9,13.4,29.9,29.9s-13.4,29.9-29.9,29.9s-29.9-13.4-29.9-29.9
	S188.2,142,204.7,142z M381.7,308.4c-3.9,2.4-7.9,4.6-11.9,6.7c-12.6,6.7-25.7,12.3-39.2,16.8c-25.9,8.6-53.1,13.1-80.7,13.1
	c-46.6,0-92.1-12.7-131.7-36.6C84.6,288,56,260,34.9,227c21.1-33.1,49.7-61,83.4-81.4c14.4-8.7,29.5-15.9,45.2-21.5
	c-15.1,18.9-24.2,42.9-24.2,69c0,61.1,49.6,110.7,110.7,110.7c61.1,0,110.7-49.6,110.7-110.7c0-26.1-9-50.1-24.2-69
	c15.7,5.6,30.8,12.8,45.2,21.5c33.7,20.4,62.3,48.3,83.4,81.4C444,260,415.4,288,381.7,308.4z"/>
</svg>
