<?xml version="1.0" encoding="utf-8"?>
<!-- Generator: Adobe Illustrator 20.1.0, SVG Export Plug-In . SVG Version: 6.00 Build 0)  -->
<svg version="1.1" id="Layer_1" xmlns="http://www.w3.org/2000/svg" xmlns:xlink="http://www.w3.org/1999/xlink" x="0px" y="0px"
	 viewBox="0 0 500 500" style="enable-background:new 0 0 500 500;" xml:space="preserve">
<style type="text/css">
	.st0{fill:#666766;}
	.st1{fill:none;stroke:#7F8080;stroke-width:50;stroke-miterlimit:10;}
	.st2{fill:none;stroke:#FFFFFF;stroke-width:50;stroke-miterlimit:10;}
	.st3{fill:#7F8080;}
	.st4{fill:none;stroke:#7F8080;stroke-width:30;stroke-miterlimit:10;}
	.st5{fill:#FFFFFF;}
</style>
<path class="st0" d="M100,0v500l130.3-113.3c11.3-9.8,28.1-9.8,39.4,0L400,500V0H100z"/>
</svg>
