<?xml version="1.0" encoding="utf-8"?>
<!-- Generator: Adobe Illustrator 20.1.0, SVG Export Plug-In . SVG Version: 6.00 Build 0)  -->
<svg version="1.1" id="Layer_1" xmlns="http://www.w3.org/2000/svg" xmlns:xlink="http://www.w3.org/1999/xlink" x="0px" y="0px"
	 viewBox="0 0 500 500" style="enable-background:new 0 0 500 500;" xml:space="preserve">
<style type="text/css">
	.st0{fill:#666666;}
	.st1{fill:#FFFFFF;}
	.st2{fill:#7F8080;}
	.st3{fill:#666766;}
</style>
<path class="st0" d="M250,0C111.9,0,0,111.9,0,250s111.9,250,250,250c138.1,0,250-111.9,250-250S388.1,0,250,0z M269.2,310.1
	c-23.7,33.3-71.3,43.1-108.4,28.8c-37.3-14.2-63.6-53.5-60.5-93.7c0.8-49.1,45.9-92.1,95-90.4c23.5-1.1,45.6,9.1,63.6,23.5
	c-7.7,8.7-15.6,17.2-24.2,25c-21.7-15-52.5-19.2-74.1-2c-31,21.4-32.4,72-2.6,95.1c29,26.3,83.8,13.2,91.8-27
	c-18.2-0.3-36.3,0-54.5-0.6c0-10.8-0.1-21.7,0-32.5c30.3-0.1,60.7-0.1,91.1,0.1C288.2,261.9,284.8,289,269.2,310.1z M400,263.5
	c-9.1,0.1-18.1,0.1-27.2,0.2c-0.1,9.1-0.1,18.2-0.2,27.2c-9.1,0-18.1,0-27.1,0c-0.1-9.1-0.1-18.1-0.2-27.2
	c-9.1-0.1-18.2-0.2-27.2-0.3c0-9,0-18,0-27.1c9.1-0.1,18.1-0.1,27.2-0.2c0-9.1,0.1-18.2,0.2-27.2c9,0,18,0,27.1,0
	c0,9.1,0.1,18.2,0.2,27.2c9.1,0.1,18.2,0.1,27.2,0.2C400,245.4,400,254.5,400,263.5z"/>
</svg>
