<?xml version="1.0" encoding="utf-8"?>
<!-- Generator: Adobe Illustrator 20.1.0, SVG Export Plug-In . SVG Version: 6.00 Build 0)  -->
<svg version="1.1" id="Layer_1" xmlns="http://www.w3.org/2000/svg" xmlns:xlink="http://www.w3.org/1999/xlink" x="0px" y="0px"
	 viewBox="0 0 500 500" style="enable-background:new 0 0 500 500;" xml:space="preserve">
<style type="text/css">
	.st0{fill:#666666;}
	.st1{fill:#FFFFFF;}
	.st2{fill:#7F8080;}
	.st3{fill:#666766;}
</style>
<g>
	<path class="st0" d="M437.5,0h-375C28.1,0,0,28.1,0,62.5v375C0,471.9,28.1,500,62.5,500h375c34.4,0,62.5-28.1,62.5-62.5v-375
		C500,28.1,471.9,0,437.5,0z M50.1,323.6c-0.2,0.9-2,1.6-4.1,1.6c-2.2,0-3.9-0.7-4.1-1.6l-6.2-29.8l6.2-30.8
		c0.2-0.9,1.9-1.6,4.1-1.6c2.2,0,3.9,0.7,4.1,1.6l7,30.8L50.1,323.6z M94,340.2c-0.2,1.8-2.4,3.2-5.1,3.2c-2.7,0-5-1.4-5.1-3.2
		l-5.3-46.1l5.3-71.3c0.1-1.8,2.4-3.2,5.1-3.2c2.7,0,4.9,1.4,5.1,3.2l6,71.3L94,340.2z M137.9,339.4c-0.1,2.2-2.8,4-6,4
		c-3.3,0-5.9-1.7-6-4l-4.4-45.3l4.4-95c0.1-2.2,2.8-4,6-4c3.2,0,5.9,1.7,6,4l5,95L137.9,339.4z M181.6,338.8
		c-0.1,2.6-3.1,4.7-6.9,4.7c-3.8,0-6.8-2.1-6.9-4.7l-3.6-44.6l3.6-95.7c0.1-2.6,3.1-4.7,6.9-4.7c3.7,0,6.8,2.1,6.9,4.7l4.1,95.7
		L181.6,338.8z M225.3,338.2c-0.1,3-3.5,5.4-7.7,5.4c-4.2,0-7.6-2.4-7.7-5.4c0,0-2.9-44-2.9-44.1l2.9-109.7c0.1-3,3.5-5.5,7.7-5.5
		c4.2,0,7.6,2.4,7.7,5.5l3.2,109.7L225.3,338.2z M409.1,343.8c-1,0-153-0.1-153.1-0.1c-3.3-0.3-5.9-3-6-6.3V168.8
		c0-3.1,1.1-4.7,5.3-6.3c10.7-4,22.9-6.3,35.3-6.3c50.9,0,92.7,37.5,97,85.4c6.6-2.6,13.8-4.1,21.4-4.1c30.5,0,55.2,23.8,55.2,53.1
		C464.3,320,439.6,343.8,409.1,343.8z"/>
</g>
</svg>
